<svg width="72" height="72" viewBox="0 0 72 72" fill="none" xmlns="http://www.w3.org/2000/svg">
<rect width="72" height="72" fill="white"/>
<path d="M34.3615 37.7736L34.3383 37.786L34.314 37.796C34.0669 37.8973 33.8077 37.9081 33.5629 37.8099C33.3353 37.7187 33.1701 37.5531 33.0515 37.3957C32.8225 37.0919 32.6575 36.6655 32.5268 36.3201C32.5136 36.2852 32.5007 36.251 32.488 36.2174C32.3607 35.8799 32.2584 35.6086 32.1445 35.4211C32.1283 35.3944 32.1139 35.373 32.1015 35.356C32.0626 35.4023 32.0042 35.4925 31.9374 35.6648C31.8277 35.9477 31.7462 36.3155 31.6624 36.7204C31.6551 36.7555 31.6478 36.7911 31.6405 36.827C31.568 37.1793 31.4894 37.5619 31.3842 37.8587C31.3264 38.0217 31.2455 38.2051 31.1216 38.3537C30.988 38.514 30.7723 38.667 30.4782 38.6541C28.9542 38.5876 27.8163 38.027 27.0901 37.6692C27.0026 37.6261 26.9211 37.5859 26.8456 37.5499C26.7072 37.4839 26.603 37.4385 26.5226 37.41C26.5096 37.4945 26.5 37.6181 26.5 37.7942C26.5 43.0354 30.7844 47.7778 36 47.7778C41.2156 47.7778 45.5 43.0354 45.5 37.7942C45.5 37.7277 45.497 37.6741 45.4926 37.6316C45.4722 37.6407 45.4494 37.6517 45.4241 37.6647C45.2246 37.7676 44.9707 37.947 44.6621 38.1833C44.5448 38.2731 44.4153 38.3746 44.2806 38.4802C44.0852 38.6333 43.8788 38.7951 43.6825 38.9425C43.3404 39.1994 42.9758 39.4545 42.6157 39.6466C42.2634 39.8345 41.8657 39.9898 41.4666 39.9908C41.0303 39.9919 40.633 39.8073 40.3446 39.4074C40.0784 39.0383 39.9242 38.5134 39.8508 37.849C39.3586 33.3882 37.384 32.3827 36.5533 32.2433C36.5533 32.2668 36.5537 32.2934 36.5547 32.3233C36.5591 32.458 36.5724 32.6119 36.5885 32.7981C36.5932 32.8518 36.598 32.9082 36.603 32.9676C36.6244 33.2237 36.6455 33.5177 36.6464 33.8307C36.6481 34.4557 36.5698 35.1812 36.2357 35.8868C35.8974 36.6014 35.3131 37.2611 34.3615 37.7736ZM26.3957 37.3763C26.3957 37.3763 26.3963 37.3763 26.3974 37.3763L26.3957 37.3763Z" fill="white" stroke="black"/>
<path d="M43.9444 31.9653C43.9444 32.6518 43.732 33.1143 43.4407 33.4043C43.1471 33.6968 42.7261 33.8611 42.2222 33.8611C41.7184 33.8611 41.2973 33.6968 41.0037 33.4043C40.7125 33.1143 40.5 32.6518 40.5 31.9653C40.5 31.6464 40.5894 31.2173 40.7521 30.73C40.9123 30.2498 41.133 29.7442 41.3705 29.2827C41.6087 28.8198 41.8569 28.4149 42.0674 28.1328C42.1564 28.0135 42.2316 27.9258 42.2899 27.8674C42.3346 27.8895 42.3981 27.9261 42.4793 27.9866C42.6611 28.1217 42.8848 28.3433 43.1028 28.6694C43.536 29.3173 43.9444 30.3763 43.9444 31.9653Z" fill="white" stroke="black"/>
<path d="M27.8784 33.4588C27.7682 34.0474 27.8769 34.4827 28.0753 34.7859C28.2762 35.0929 28.607 35.3225 29.0402 35.4297C29.4734 35.5369 29.857 35.4841 30.1499 35.2993C30.4393 35.1167 30.694 34.7714 30.8041 34.1827C30.8547 33.9124 30.8476 33.5243 30.7853 33.0644C30.7241 32.6122 30.6143 32.124 30.4824 31.6701C30.3501 31.2148 30.2 30.809 30.0634 30.5196C30.014 30.415 29.9701 30.3336 29.9337 30.2742C29.8964 30.2844 29.8472 30.3008 29.7859 30.3275C29.6098 30.4043 29.382 30.5466 29.1414 30.7813C28.6638 31.2471 28.137 32.0763 27.8784 33.4588Z" fill="white" stroke="black"/>
<path d="M33.8352 27.6695C33.744 28.0958 33.8277 28.4107 33.9818 28.6377C34.1424 28.8744 34.4179 29.0712 34.7934 29.1774C35.1688 29.2836 35.4923 29.2563 35.73 29.1324C35.9581 29.0134 36.1593 28.7792 36.2505 28.3529C36.2909 28.1639 36.2897 27.8736 36.2392 27.5098C36.19 27.155 36.0993 26.7675 35.9891 26.4044C35.8785 26.0399 35.7528 25.7155 35.6392 25.485C35.6055 25.4165 35.5753 25.3614 35.5497 25.3189C35.5221 25.3251 35.4881 25.3343 35.4475 25.3483C35.301 25.3986 35.1106 25.4968 34.9087 25.6652C34.5098 25.998 34.0621 26.6091 33.8352 27.6695Z" fill="white" stroke="black"/>
</svg>
