<svg width="250" height="350" viewBox="0 0 250 350" fill="none" xmlns="http://www.w3.org/2000/svg">
<path d="M146.588 123.503L156.978 141.593L148 149L137.331 136.505L119.007 131.794L100.872 146.116L105.972 164.583L132.231 175.889L169.635 161.945L175.68 126.141L162.267 102.397L114.473 89.9598L77.4472 113.327L66.8683 160.06L81.6032 189.08L119.007 210.563L163.59 203.402L188.148 189.08L192.813 178L192 170L194 172.5L195.5 170L196.5 173L198.5 172.5L195 178.5L193.815 192.849L167.935 213.955L114.473 223L71.4022 198.879L51 163.075L62.7123 102.397L112.206 73L175.68 89.9598L192.682 126.141L181.725 174.382L132.231 192.849L92.1821 173.628L85.0036 141.593L114.473 116.342L146.588 123.503Z" fill="#13001A"/>
<path d="M114.5 90L162.5 102.5L114.5 86.5L77 113.5L114.5 90Z" fill="#9730FF"/>
<path d="M132 189.5L92.5 173.5L132 193L181.5 174.5L132 189.5Z" fill="#9730FF"/>
<path d="M100.5 146.5L117 126L143.5 132L148 139L142.5 142.5L137.5 136.5L119 132L100.5 146.5Z" fill="#9730FF"/>
<path d="M141.399 160.314L140.758 152.745L141.399 147L137.5 140L146 138L152 129L157 138.5L165.558 132.655L165.308 143L170 147L164.211 153.246L161.683 164.954L162.317 181.039L165.308 185.337L161.511 188.144L154.162 184.732L145.458 163.653L141.399 160.314Z" fill="#14071F"/>
<path d="M164.5 157.5L164 154.5L163 157L163 159L164.5 157.5Z" fill="#FF007A"/>
<path d="M147.5 163L155 180V183.5L164 186.5L161.5 188L154 184.5L145.5 163.5L141.5 160.5L141 152.5L143.5 160L147.5 163Z" fill="#9730FF"/>
<path d="M149.66 155.525L146.5 153.5L146 155L147.419 157.319L150 158L149.66 155.525Z" fill="#FF007A"/>
<path d="M153.642 155.103L154 164L152.5 156.5L150.281 153.342L146 151.087L141.5 147L145 147.5L147.5 149.5L150.368 151.087L153.642 155.103Z" fill="#9730FF"/>
<path d="M192.5 174.5L194 172.5L195.5 170L193 178.5L192.5 174.5Z" fill="#300061"/>
<path d="M90.3951 248.095L129.235 246L165.086 248.095L186 251.238L165.086 255.429L129.235 257L90.3951 255.429L65 252.81L90.3951 248.095Z" fill="black"/>
<path d="M167.5 211.5L115.5 220L73 197L58.5 176L71.5 199L114.5 223L168 214L194 193L195 179L193.5 192L167.5 211.5Z" fill="#9730FF"/>
<path d="M198.5 172.5L196.5 173L195 178.5L198.5 172.5Z" fill="#300061"/>
<path d="M145 147.5L141.5 147L145 144.5L146 138V145L145 147.5Z" fill="#9730FF"/>
<path d="M156.5 142L152 143L155.5 140.5L156 137L157 138.5V141L159 143L156.5 142Z" fill="#9730FF"/>
<path d="M165 149.5L164.5 153L169.5 147L165 149.5Z" fill="#9730FF"/>
<path d="M165.5 133L165 143L163 141.5L165.5 133Z" fill="#9730FF"/>
</svg>
