<svg width="72" height="72" viewBox="0 0 72 72" fill="none" xmlns="http://www.w3.org/2000/svg">
<rect width="72" height="72" fill="white"/>
<rect x="35.4331" y="26.7516" width="14.0669" height="20.6587" rx="2.5" fill="white"/>
<rect x="35.4331" y="26.7516" width="14.0669" height="20.6587" rx="2.5" fill="white"/>
<rect x="35.4331" y="26.7516" width="14.0669" height="20.6587" rx="2.5" stroke="black"/>
<path d="M40.5832 37.081H45.2916M45.2916 37.081L42.4665 34.2559M45.2916 37.081L42.4665 39.906" stroke="black" stroke-linecap="round" stroke-linejoin="round"/>
<rect x="22.5" y="24.5" width="17.738" height="25.2331" rx="2.5" fill="white"/>
<rect x="22.5" y="24.5" width="17.738" height="25.2331" rx="2.5" fill="white"/>
<rect x="22.5" y="24.5" width="17.738" height="25.2331" rx="2.5" stroke="black"/>
</svg>
